{
  "Top": "ports_to_axis",
  "RtlTop": "ports_to_axis",
  "RtlPrefix": "",
  "SourceLanguage": "cpp",
  "ResetStyle": "control",
  "GenerateBdFiles": "1",
  "HostMachineBits": "64",
  "Target": {
    "Family": "zynq",
    "Device": "xc7z020",
    "Package": "-clg484",
    "Speed": "-1"
  },
  "HlsSolution": {
    "Config": [
      "config_export -format=ip_catalog",
      "config_export -rtl=vhdl"
    ],
    "DirectiveTcl": ["set_directive_interface ports_to_axis "],
    "DirectiveInfo": ["interface ports_to_axis {{axis positionBoolean0mode} {register positionBoolean1} {both positionBoolean0register_mode} {port positionBooleanTextRequiredm_axis} {name M_AXIS}} {}"]
  },
  "Args": {
    "en": {
      "index": "0",
      "type": {
        "dataType": "bool",
        "dataWidth": "1",
        "interfaceRef": "en"
      }
    },
    "ports": {
      "index": "1",
      "type": {
        "dataType": "ap_uint",
        "dataWidth": "12",
        "interfaceRef": "ports_V"
      }
    },
    "M_AXIS": {
      "index": "2",
      "type": {
        "kinds": ["pointer"],
        "dataType": "int",
        "dataWidth": "32",
        "interfaceRef": "M_AXIS",
        "portRef": "TDATA"
      }
    }
  },
  "Return": {
    "dataType": "int",
    "dataWidth": "32",
    "interfaceRef": "ap_return"
  },
  "ClockInfo": {
    "ClockName": "ap_clk",
    "ClockPeriod": "10",
    "IsCombLogic": "0",
    "II": "x",
    "Latency": "1",
    "Uncertainty": "1.25"
  },
  "Xdc": {"OocClocks": ["create_clock -name ap_clk -period 10.000 [get_ports ap_clk]"]},
  "Ipx": {
    "Vendor": "xilinx.com",
    "Library": "hls",
    "Name": "ports_to_axis",
    "Version": "1.0",
    "DisplayName": "Ports_to_axis",
    "Revision": "",
    "Description": "An IP generated by Vivado HLS",
    "Taxonomy": "\/VIVADO_HLS_IP",
    "AutoFamilySupport": ""
  },
  "Files": {
    "CSource": ["..\/..\/ports_to_axis.cpp"],
    "Vhdl": ["impl\/vhdl\/ports_to_axis.vhd"],
    "Verilog": ["impl\/verilog\/ports_to_axis.v"],
    "Misc": ["impl\/misc\/logo.png"],
    "DesignXml": "D:\/Vivado\/mi-soc\/src\/ip\/ports_to_axis\/solution1\/.autopilot\/db\/ports_to_axis.design.xml",
    "DebugDir": "D:\/Vivado\/mi-soc\/src\/ip\/ports_to_axis\/solution1\/.debug",
    "ProtoInst": ["D:\/Vivado\/mi-soc\/src\/ip\/ports_to_axis\/solution1\/.debug\/ports_to_axis.protoinst"]
  },
  "SubcoreInfo": {
    "HasXpmMemory": false,
    "HasClockedDsp": false,
    "IP": []
  },
  "Interfaces": {
    "ap_clk": {
      "type": "clock",
      "ctype": {"CLK": {"Type": "bool"}},
      "bundle_name": "ap_clk",
      "bundle_role": "default",
      "buses": "M_AXIS",
      "reset": "ap_rst_n"
    },
    "ap_ctrl": {
      "type": "ap_ctrl",
      "ctrl_ports": "ap_start ap_done ap_idle ap_ready",
      "ctype": {
        "start": {"Type": "bool"},
        "done": {"Type": "bool"},
        "idle": {"Type": "bool"},
        "ready": {"Type": "bool"}
      }
    },
    "ap_return": {
      "type": "data",
      "dir": "out",
      "width": "32",
      "ctype": {"DATA": {
          "Type": "integer signed",
          "Width": "32"
        }},
      "bundle_name": "ap_return",
      "bundle_role": "default"
    },
    "ap_rst_n": {
      "type": "reset",
      "polarity": "ACTIVE_LOW",
      "ctype": {"RST": {"Type": "bool"}},
      "bundle_name": "ap_rst_n",
      "bundle_role": "default"
    },
    "en": {
      "type": "data",
      "dir": "in",
      "width": "1",
      "ctype": {"DATA": {
          "Type": "null",
          "Width": "1"
        }},
      "bundle_name": "en",
      "bundle_role": "default"
    },
    "M_AXIS": {
      "type": "axi4stream",
      "mode": "master",
      "port_prefix": "M_AXIS",
      "has_tready": "1",
      "ctype": {
        "TDATA": {
          "Type": "integer signed",
          "Width": "32"
        },
        "TVALID": {"Type": "bool"},
        "TREADY": {"Type": "bool"}
      },
      "port_width": {"TDATA": "32"}
    },
    "ports_V": {
      "type": "data",
      "dir": "in",
      "width": "12",
      "ctype": {"DATA": {
          "Type": "integer unsigned",
          "Width": "12"
        }},
      "bundle_name": "ports_V",
      "bundle_role": "default"
    }
  },
  "RtlPorts": {
    "ap_clk": {
      "dir": "in",
      "width": "1"
    },
    "ap_rst_n": {
      "dir": "in",
      "width": "1"
    },
    "ap_start": {
      "dir": "in",
      "width": "1"
    },
    "ap_done": {
      "dir": "out",
      "width": "1"
    },
    "ap_idle": {
      "dir": "out",
      "width": "1"
    },
    "ap_ready": {
      "dir": "out",
      "width": "1"
    },
    "ap_return": {
      "dir": "out",
      "width": "32"
    },
    "en": {
      "dir": "in",
      "width": "1"
    },
    "ports_V": {
      "dir": "in",
      "width": "12"
    },
    "M_AXIS_TDATA": {
      "dir": "out",
      "width": "32"
    },
    "M_AXIS_TVALID": {
      "dir": "out",
      "width": "1"
    },
    "M_AXIS_TREADY": {
      "dir": "in",
      "width": "1"
    }
  },
  "ModuleInfo": {
    "Hierarchy": {"ModuleName": "ports_to_axis"},
    "Info": {"ports_to_axis": {
        "FunctionProtocol": "ap_ctrl_hs",
        "isTaskLevelControl": "1",
        "isPipelined": "0",
        "isCombinational": "0",
        "isOneStateSeq": "0"
      }},
    "Metrics": {"ports_to_axis": {
        "Latency": {
          "LatencyBest": "1",
          "LatencyAvg": "1",
          "LatencyWorst": "1",
          "PipelineII": "2",
          "PipelineDepth": "",
          "PipelineType": "none"
        },
        "Timing": {
          "Target": "10.00",
          "Uncertainty": "1.25",
          "Estimate": "0.000"
        },
        "Area": {
          "FF": "70",
          "LUT": "64",
          "BRAM_18K": "0",
          "DSP48E": "0",
          "URAM": "0"
        }
      }}
  },
  "Sdx": {
    "Target": "none",
    "ProfileOption": "0",
    "ProfileType": "none",
    "XO": "",
    "KernelName": "ports_to_axis",
    "EnableXoSwEmu": "1"
  },
  "GenData": {
    "DataVersion": "0.2",
    "Time": "2019-12-15 13:01:41 +0100",
    "ToolName": "vivado_hls",
    "ToolVersion": "2019.1"
  }
}
