INFO: [XSIM 43-3496] Using init file passed via -initfile option "D:/Xilinx/Vivado/2019.1/data/xsim/ip/xsim_ip.ini".
Vivado Simulator 2019.1
Copyright 1986-1999, 2001-2019 Xilinx, Inc. All Rights Reserved.
Running: D:/Xilinx/Vivado/2019.1/bin/unwrapped/win64.o/xelab.exe xil_defaultlib.apatb_ports_to_axis_top glbl -prj ports_to_axis.prj -L smartconnect_v1_0 -L axi_protocol_checker_v1_1_12 -L axi_protocol_checker_v1_1_13 -L axis_protocol_checker_v1_1_11 -L axis_protocol_checker_v1_1_12 -L xil_defaultlib -L unisims -L unisims_ver -L xpm --initfile D:/Xilinx/Vivado/2019.1/data/xsim/ip/xsim_ip.ini --lib ieee_proposed=./ieee_proposed -s ports_to_axis -debug wave 
Multi-threading is on. Using 10 slave threads.
Determining compilation order of HDL files.
INFO: [VRFC 10-2263] Analyzing SystemVerilog file "D:/Vivado/mi-soc/src/ip/ports_to_axis/solution1/sim/vhdl/glbl.v" into library work
INFO: [VRFC 10-311] analyzing module glbl
INFO: [VRFC 10-163] Analyzing VHDL file "D:/Vivado/mi-soc/src/ip/ports_to_axis/solution1/sim/vhdl/AESL_sim_pkg.vhd" into library xil_defaultlib
INFO: [VRFC 10-163] Analyzing VHDL file "D:/Vivado/mi-soc/src/ip/ports_to_axis/solution1/sim/vhdl/AESL_axi_s_M_AXIS.vhd" into library xil_defaultlib
INFO: [VRFC 10-3107] analyzing entity 'AESL_axi_s_M_AXIS'
INFO: [VRFC 10-163] Analyzing VHDL file "D:/Vivado/mi-soc/src/ip/ports_to_axis/solution1/sim/vhdl/ports_to_axis.autotb.vhd" into library xil_defaultlib
INFO: [VRFC 10-3107] analyzing entity 'apatb_ports_to_axis_top'
INFO: [VRFC 10-163] Analyzing VHDL file "D:/Vivado/mi-soc/src/ip/ports_to_axis/solution1/sim/vhdl/ports_to_axis.vhd" into library xil_defaultlib
INFO: [VRFC 10-3107] analyzing entity 'ports_to_axis'
Starting static elaboration
Completed static elaboration
Starting simulation data flow analysis
Completed simulation data flow analysis
Time Resolution for simulation is 1ps
Compiling package std.standard
Compiling package std.textio
Compiling package ieee.std_logic_1164
Compiling package ieee.std_logic_arith
Compiling package ieee.std_logic_unsigned
Compiling package ieee.numeric_std
Compiling package ieee.std_logic_textio
Compiling module work.glbl
Compiling architecture behav of entity xil_defaultlib.ports_to_axis [ports_to_axis_default]
Compiling architecture behav of entity xil_defaultlib.AESL_axi_s_M_AXIS [aesl_axi_s_m_axis_default]
Compiling architecture behav of entity xil_defaultlib.apatb_ports_to_axis_top
Built simulation snapshot ports_to_axis
